{
  "index": "/mnt/scratch3/jfoley/enron.irene",
  "fields": {
    "from": {"kind": "string", "alwaysPull": true},
    "to": {"kind": "string", "alwaysPull": true},
    "cc": {"kind": "string", "alwaysPull": true},
    "subject": {"kind": "string", "alwaysPull": true},
    "attachment": {"kind": "string", "alwaysPull": true},
    "storedExcelCount": {"kind": "int", "alwaysPull": true},
    "storedTimeStamp": {"kind": "long", "alwaysPull": true}
  }
}